Census data in R: tidycensus + tidyverse
…
count: false
 
# Importing - step by step view
.panel1-import-data-real-auto[

```r
*readxl::read_excel(path = "raw_data/tx_vaccine_uptake.xlsx",
*                                      sheet = "By County")
```
]
 
.panel2-import-data-real-auto[

```
# A tibble: 259 × 14
   `County Name`        `Public Health Reg… `Total Doses All… `Vaccine Doses Ad…
   <chr>                <chr>                           <dbl> <chr>             
 1 Texas                --                           27513735 31694004          
 2 Federal Long-Term C… --                             720525 --                
 3 Federal Pharmacy Re… --                            5509700 --                
 4 Anderson             4/5N                            17870 42423             
 5 Andrews              9/10                             6100 15229             
 6 Angelina             4/5N                            58100 71038             
 7 Aransas              11                               6840 27219             
 8 Archer               2/3                              3200 7524              
 9 Armstrong            1                                2100 1322              
10 Atascosa             8                               19000 46260             
# … with 249 more rows, and 10 more variables:
#   People Vaccinated with at least One Dose <chr>,
#   People Fully Vaccinated <chr>, Population
…
# Importing - step by step view
.panel1-import-data-real-auto[

```r
readxl::read_excel(path = "raw_data/tx_vaccine_uptake.xlsx",
                                       sheet = "By County") %>%
* janitor::clean_names()
```
]
 
.panel2-import-data-real-auto[

```
# A tibble: 259 × 14
   county_name          public_health_regi… total_doses_allo… vaccine_doses_adm…
   <chr>                <chr>                           <dbl> <chr>             
 1 Texas                --                           27513735 31694004          
 2 Federal Long-Term C… --                             720525 --                
 3 Federal Pharmacy Re… --                            5509700 --                
 4 Anderson             4/5N                            17870 42423             
 5 Andrews              9/10                             6100 15229             
 6 Angelina             4/5N                            58100 71038             
 7 Aransas              11                               6840 27219             
 8 Archer               2/3                              3200 7524              
 9 Armstrong            1                                2100 1322              
10 Atascosa             8                               19000 46260             
# … with 249 more rows, and 10 more variables:
#   people_vaccinated_with_at_least_one_dose <chr>,
#   people_fully_vaccinated <chr>, population_12 <chr>, population_16 <chr>,
#   population_65 <chr>, population_phase_1a_healthcare_workers <chr>,
#   population_phase_1a_long_term_care_residents <chr>,
#   population_16_64_any_medical_condition <chr>,
#   population_education_and_child_care_personnel <chr>, …
```
…
# Importing - step by step view
.panel1-import-data-real-auto[

```r
readxl::read_excel(path = "raw_data/tx_vaccine_uptake.xlsx",
                                       sheet = "By County") %>%
  janitor::clean_names()
```
]
 
.panel2-import-data-real-auto[

```
# A tibble: 259 × 14
   county_name          public_health_regi… total_doses_allo… vaccine_doses_adm…
   <chr>                <chr>                           <dbl> <chr>             
 1 Texas                --                           27513735 31694004          
 2 Federal Long-Term C… --                             720525 --                
 3 Federal Pharmacy Re… --                            5509700 --                
 4 Anderson             4/5N                            17870 42423             
 5 Andrews              9/10                             6100 15229             
 6 Angelina             4/5N                            58100 71038             
 7 Aransas              11                               6840 27219             
 8 Archer               2/3                              3200 7524              
 9 Armstrong            1                                2100 1322              
10 Atascosa             8                               19000 46260             
# … with 249 more rows, and 10 more variables:
#   people_vaccinated_with_at_least_one_dose <chr>,
#   people_fully_vaccinated <chr>, population_12 <chr>, population_16 <chr>,
#   population_65 <chr>, population_phase_1a_healthcare_workers <chr>,
#   population_phase_1a_long_term_care_residents <chr>,
#   population_16_64_any_medical_condition <chr>,
#   population_education_and_child_care_personnel <chr>, …
```
…
```r
vaccine_uptake <- vaccine_data_raw %>% 
  select(county_name, people_fully_vaccinated, population_12) %>% # Pull the three columns we need
  mutate(people_fully_vaccinated = as.numeric(people_fully_vaccinated), # Reclassify Character Data As Numeric 
         population_12 = as.numeric(population_12)) %>%
  mutate(pct_uptake = round(people_fully_vaccinated/population_12, digits = 4)) %>%  # Create PCT Column
  filter(county_name!="Texas",                                        # Filter out 'Texas' value
         county_name!="Other",                                        # Filter our 'Other' value
         county_name!="Federal Long-Term Care Vaccination Program",   # Filter our Federal Programs
         county_name!="Federal Pharmacy Retail Vaccination Program")
```

```
# A tibble: 254 × 4
   county_name people_fully_vaccinated population_12 pct_uptake
   <chr>                         <dbl>         <dbl>      <dbl>
 1 Anderson                      20534         50661      0.405
 2 Andrews                        7083         14863      0.477
 3 Angelina                      34014         72486      0.469
 4 Aransas                       12774         20834      0.613
 5 Archer                         3646          7388      0.494
 6 Armstrong                       620          1584      0.391
 7 Atascosa                      21833         41738      0.523
 8 Austin                        13052         25335      0.515
 9 Bailey                         2348          5603      0.419
10 Bandera                        9171         20596      0.445
# … with 244 more rows
```
…
count: false
 
# Working with Data - Step 1
.panel1-create-pct-column-real-auto[

```r
*vaccine_data_raw
```
]
 
.panel2-create-pct-column-real-auto[

```
# A tibble: 259 × 14
   county_name          public_health_regi… total_doses_allo… vaccine_doses_adm…
   <chr>                <chr>                           <dbl> <chr>             
 1 Texas                --                           27513735 31694004          
 2 Federal Long-Term C… --                             720525 --                
 3 Federal Pharmacy Re… --                            5509700 --                
 4 Anderson             4/5N                            17870 42423             
 5 Andrews              9/10                             6100 15229             
 6 Angelina             4/5N                            58100 71038             
 7 Aransas              11                               6840 27219             
 8 Archer               2/3                              3200 7524              
 9 Armstrong            1                                2100 1322              
10 Atascosa             8                               19000 46260             
# … with 249 more rows, and 10 more variables:
#   people_vaccinated_with_at_least_one_dose <chr>,
#   people_fully_vaccinated <chr>, population_12 <chr>, population_16 <chr>,
#   population_65 <chr>, population_phase_1a_healthcare_workers <chr>,
#   population_phase_1a_long_term_care_residents <chr>,
#   population_16_64_any_medical_condition <chr>,
#   population_education_and_child_care_personnel <chr>, …
```
…
# Working with Data - Step 1
.panel1-create-pct-column-real-auto[

```r
vaccine_data_raw %>%
* select(county_name, people_fully_vaccinated, population_12)   # Pull the three columns we need
```
]
 
.panel2-create-pct-column-real-auto[

```
# A tibble: 259 × 3
   county_name                                 people_fully_vacci… population_12
   <chr>                                       <chr>               <chr>        
 1 Texas                                       14946236            24068624     
 2 Federal Long-Term Care Vaccination Program  --                  --           
 3 Federal Pharmacy Retail Vaccination Program --                  --           
 4 Anderson                                    20534               50661        
 5 Andrews                                     7083                14863        
 6 Angelina                                    34014               72486        
 7 Aransas                                     12774               20834        
 8 Archer                                      3646                7388         
 9 Armstrong                                   620                 1584         
10 Atascosa                                    21833               41738        
# … with 249 more rows
```
…
# Working with Data - Step 1
.panel1-create-pct-column-real-auto[

```r
vaccine_data_raw %>%
  select(county_name, people_fully_vaccinated, population_12) %>%  # Pull the three columns we need
* mutate(people_fully_vaccinated = as.numeric(people_fully_vaccinated),  # Reclassify Character Data As Numeric
*        population_12 = as.numeric(population_12))
```
]
 
.panel2-create-pct-column-real-auto[

```
# A tibble: 259 × 3
   county_name                                 people_fully_vacci… population_12
   <chr>                                                     <dbl>         <dbl>
 1 Texas                                                  14946236      24068624
 2 Federal Long-Term Care Vaccination Program                   NA            NA
 3 Federal Pharmacy Retail Vaccination Program                  NA            NA
 4 Anderson                                                  20534         50661
 5 Andrews                                                    7083         14863
 6 Angelina                                                  34014         72486
 7 Aransas                                                   12774         20834
 8 Archer                                                     3646          7388
 9 Armstrong                                                   620          1584
10 Atascosa                                                  21833         41738
# … with 249 more rows
```
…
```r
vaccine_data_raw %>%
  select(county_name, people_fully_vaccinated, population_12) %>%  # Pull the three columns we need
  mutate(people_fully_vaccinated = as.numeric(people_fully_vaccinated),  # Reclassify Character Data As Numeric
         population_12 = as.numeric(population_12)) %>%
* mutate(pct_uptake = round(people_fully_vaccinated/population_12, digits = 4))   # Create PCT Column
```
]
 
.panel2-create-pct-column-real-auto[

```
# A tibble: 259 × 4
   county_name                     people_fully_vaccin… population_12 pct_uptake
   <chr>                                          <dbl>         <dbl>      <dbl>
 1 Texas                                       14946236      24068624      0.621
 2 Federal Long-Term Care Vaccina…                   NA            NA     NA    
 3 Federal Pharmacy Retail Vaccin…                   NA            NA     NA    
 4 Anderson                                       20534         50661      0.405
 5 Andrews                                         7083         14863      0.477
 6 Angelina                                       34014         72486      0.469
 7 Aransas                                        12774         20834      0.613
 8 Archer                                          3646          7388      0.494
 9 Armstrong                                        620          1584      0.391
10 Atascosa                                       21833         41738      0.523
# … with 249 more rows
```
…
.panel2-create-pct-column-real-auto[

```
# A tibble: 254 × 4
   county_name people_fully_vaccinated population_12 pct_uptake
   <chr>                         <dbl>         <dbl>      <dbl>
 1 Anderson                      20534         50661      0.405
 2 Andrews                        7083         14863      0.477
 3 Angelina                      34014         72486      0.469
 4 Aransas                       12774         20834      0.613
 5 Archer                         3646          7388      0.494
 6 Armstrong                       620          1584      0.391
 7 Atascosa                      21833         41738      0.523
 8 Austin                        13052         25335      0.515
 9 Bailey                         2348          5603      0.419
10 Bandera                        9171         20596      0.445
# … with 244 more rows
```
…
count: false
 
# Working with Data - Step 2
.panel1-rank-and-limit-real-auto[

```r
*vaccine_uptake   # Create New Object
```
]
 
.panel2-rank-and-limit-real-auto[

```
# A tibble: 254 × 4
   county_name people_fully_vaccinated population_12 pct_uptake
   <chr>                         <dbl>         <dbl>      <dbl>
 1 Anderson                      20534         50661      0.405
 2 Andrews                        7083         14863      0.477
 3 Angelina                      34014         72486      0.469
 4 Aransas                       12774         20834      0.613
 5 Archer                         3646          7388      0.494
 6 Armstrong                       620          1584      0.391
 7 Atascosa                      21833         41738      0.523
 8 Austin                        13052         25335      0.515
 9 Bailey                         2348          5603      0.419
10 Bandera                        9171         20596      0.445
# … with 244 more rows
```
…
# Working with Data - Step 2
.panel1-rank-and-limit-real-auto[

```r
vaccine_uptake %>%  # Create New Object
* mutate(uptake_rank = dense_rank(desc(pct_uptake)))   # Create Rank Column
```
]
 
.panel2-rank-and-limit-real-auto[

```
# A tibble: 254 × 5
   county_name people_fully_vaccinated population_12 pct_uptake uptake_rank
   <chr>                         <dbl>         <dbl>      <dbl>       <int>
 1 Anderson                      20534         50661      0.405         182
 2 Andrews                        7083         14863      0.477          94
 3 Angelina                      34014         72486      0.469         104
 4 Aransas                       12774         20834      0.613          31
 5 Archer                         3646          7388      0.494          83
 6 Armstrong                       620          1584      0.391         197
 7 Atascosa                      21833         41738      0.523          65
 8 Austin                        13052         25335      0.515          70
 9 Bailey                         2348          5603      0.419         166
10 Bandera                        9171         20596      0.445         135
# … with 244 more rows
```
…
# A step by step view
.panel1-fancy_diamonds-auto[

```r
library(ggplot2)
library(ggthemes)

*diamonds   # Call On Your Dataset
```
]
 
.panel2-fancy_diamonds-auto[

```
# A tibble: 53,940 × 10
   carat cut       color clarity depth table price     x     y     z
   <dbl> <ord>     <ord> <ord>   <dbl> <dbl> <int> <dbl> <dbl> <dbl>
 1  0.23 Ideal     E     SI2      61.5    55   326  3.95  3.98  2.43
 2  0.21 Premium   E     SI1      59.8    61   326  3.89  3.84  2.31
 3  0.23 Good      E     VS1      56.9    65   327  4.05  4.07  2.31
 4  0.29 Premium   I     VS2      62.4    58   334  4.2   4.23  2.63
 5  0.31 Good      J     SI2      63.3    58   335  4.34  4.35  2.75
 6  0.24 Very Good J     VVS2     62.8    57   336  3.94  3.96  2.48
 7  0.24 Very Good I     VVS1     62.3    57   336  3.95  3.98  2.47
 8  0.26 Very Good H     SI1      61.9    55   337  4.07  4.11  2.53
 9  0.22 Fair      E     VS2      65.1    61   337  3.87  3.78  2.49
10  0.23 Very Good H     VS1      59.4    61   338  4     4.05  2.39
# … with 53,930 more rows
```
…
